{
    "current_page": 1,
    "data": [
        {
            "id": 972,
            "user_id": 1,
            "current_addr": "3ZG2xQWLscAO937",
            "name": "hpq6XEQL",
            "owner_relation": "Wt72AwBW",
            "id_card": "6EGb50z9pcjBzWRMZb",
            "gender": "男",
            "nation": "KR",
            "tel": "0",
            "investigate_addr": "BxrmqnfcjLvc8b8",
            "account_addr": "krcGD1axUb0cP8u",
            "enter_time": null,
            "leave_ac_addr_time": null,
            "leave_ac_addr_reason": null,
            "remark": null,
            "created_at": "2021-11-15T06:30:20.000000Z",
            "updated_at": "2021-11-15T06:30:20.000000Z"
        },
        {
            "id": 973,
            "user_id": 1,
            "current_addr": "KQ3GuVlCektgvlG",
            "name": "0AKSTDNV",
            "owner_relation": "ecoGp83h",
            "id_card": "UYI4IjZY8jXFmCAbk9",
            "gender": "男",
            "nation": "G5",
            "tel": "0",
            "investigate_addr": "65PgsHi3Ytsr2xD",
            "account_addr": "8gxx7yCkBqZtUAn",
            "enter_time": null,
            "leave_ac_addr_time": null,
            "leave_ac_addr_reason": null,
            "remark": null,
            "created_at": "2021-11-15T06:30:20.000000Z",
            "updated_at": "2021-11-15T06:30:20.000000Z"
        },
        {
            "id": 974,
            "user_id": 1,
            "current_addr": "LOIL5COzjF53CkV",
            "name": "KPVP0Uv0",
            "owner_relation": "vCvJRueC",
            "id_card": "0x1tpWvaM1bXp5Lpor",
            "gender": "男",
            "nation": "2F",
            "tel": "0",
            "investigate_addr": "o4Z51FuHBrG8DD8",
            "account_addr": "6M3gVGNCkBcrD39",
            "enter_time": null,
            "leave_ac_addr_time": null,
            "leave_ac_addr_reason": null,
            "remark": null,
            "created_at": "2021-11-15T06:30:20.000000Z",
            "updated_at": "2021-11-15T06:30:20.000000Z"
        },
        {
            "id": 975,
            "user_id": 1,
            "current_addr": "KtXllK036cOUs2o",
            "name": "A5OjOdhV",
            "owner_relation": "pvg69QiC",
            "id_card": "GxDOTdAar72OPXw0NM",
            "gender": "男",
            "nation": "pp",
            "tel": "0",
            "investigate_addr": "IjhJFMXttm1DZVM",
            "account_addr": "ezB3dzf7Vb87gHq",
            "enter_time": null,
            "leave_ac_addr_time": null,
            "leave_ac_addr_reason": null,
            "remark": null,
            "created_at": "2021-11-15T06:30:20.000000Z",
            "updated_at": "2021-11-15T06:30:20.000000Z"
        },
        {
            "id": 976,
            "user_id": 1,
            "current_addr": "l9QFqMBw6fPqGoG",
            "name": "awyMzwYA",
            "owner_relation": "43reoDj2",
            "id_card": "KrzPseFzl9Pze2utzM",
            "gender": "男",
            "nation": "gF",
            "tel": "0",
            "investigate_addr": "MtM3uGU4UqTlHip",
            "account_addr": "TkcE3MrCAT9uUOh",
            "enter_time": null,
            "leave_ac_addr_time": null,
            "leave_ac_addr_reason": null,
            "remark": null,
            "created_at": "2021-11-15T06:30:20.000000Z",
            "updated_at": "2021-11-15T06:30:20.000000Z"
        },
        {
            "id": 977,
            "user_id": 1,
            "current_addr": "Ih69sajkeCTYCh5",
            "name": "MIVnC6Xz",
            "owner_relation": "6dK3l7Kt",
            "id_card": "eJMfWPSUEshBn81iGU",
            "gender": "男",
            "nation": "nF",
            "tel": "0",
            "investigate_addr": "KDH5JbK7fhHvavf",
            "account_addr": "KkBkfWF8CK4ebfo",
            "enter_time": null,
            "leave_ac_addr_time": null,
            "leave_ac_addr_reason": null,
            "remark": null,
            "created_at": "2021-11-15T06:30:20.000000Z",
            "updated_at": "2021-11-15T06:30:20.000000Z"
        },
        {
            "id": 978,
            "user_id": 1,
            "current_addr": "AWCG8385VuT0jvu",
            "name": "9gRaekPU",
            "owner_relation": "8aaIleOY",
            "id_card": "fMMpjFZP4oYGJSG2v2",
            "gender": "男",
            "nation": "L9",
            "tel": "0",
            "investigate_addr": "PypGWDpVVdi45VS",
            "account_addr": "Gs6ybwHLlhaQ0z2",
            "enter_time": null,
            "leave_ac_addr_time": null,
            "leave_ac_addr_reason": null,
            "remark": null,
            "created_at": "2021-11-15T06:30:20.000000Z",
            "updated_at": "2021-11-15T06:30:20.000000Z"
        },
        {
            "id": 979,
            "user_id": 1,
            "current_addr": "DJp16vX9k9yK9L3",
            "name": "LcjrqvpV",
            "owner_relation": "B1v3an3w",
            "id_card": "fLVRP6S9Fzr47a1CWq",
            "gender": "男",
            "nation": "pK",
            "tel": "0",
            "investigate_addr": "pGlshCfJnvUO7Fl",
            "account_addr": "Lo0GwwNScRp53gK",
            "enter_time": null,
            "leave_ac_addr_time": null,
            "leave_ac_addr_reason": null,
            "remark": null,
            "created_at": "2021-11-15T06:30:20.000000Z",
            "updated_at": "2021-11-15T06:30:20.000000Z"
        },
        {
            "id": 980,
            "user_id": 1,
            "current_addr": "dsLHFVc477k8656",
            "name": "TmA9AwSl",
            "owner_relation": "mNVLuqke",
            "id_card": "GURelMTdD5mItANXj4",
            "gender": "男",
            "nation": "IS",
            "tel": "0",
            "investigate_addr": "DF6o8icPu3CVyg3",
            "account_addr": "pAThmaO4pK5CEGk",
            "enter_time": null,
            "leave_ac_addr_time": null,
            "leave_ac_addr_reason": null,
            "remark": null,
            "created_at": "2021-11-15T06:30:20.000000Z",
            "updated_at": "2021-11-15T06:30:20.000000Z"
        },
        {
            "id": 981,
            "user_id": 1,
            "current_addr": "InsrQXDizzPP1gA",
            "name": "i4wPcCpX",
            "owner_relation": "Cv6dwFtg",
            "id_card": "RLnNHee308T6SE5AYp",
            "gender": "男",
            "nation": "w0",
            "tel": "0",
            "investigate_addr": "wuEJfBe23LWw1jz",
            "account_addr": "rYvK6xlufVkOWdi",
            "enter_time": null,
            "leave_ac_addr_time": null,
            "leave_ac_addr_reason": null,
            "remark": null,
            "created_at": "2021-11-15T06:30:20.000000Z",
            "updated_at": "2021-11-15T06:30:20.000000Z"
        },
        {
            "id": 982,
            "user_id": 1,
            "current_addr": "ThepRzJf7ednZkq",
            "name": "1UoGc44H",
            "owner_relation": "NEdiWmn8",
            "id_card": "Ycr9jMjXpt2yA1uZzA",
            "gender": "男",
            "nation": "ON",
            "tel": "0",
            "investigate_addr": "GNqL96rTqCdJFTl",
            "account_addr": "Jvb7FPt1qJK5bdi",
            "enter_time": null,
            "leave_ac_addr_time": null,
            "leave_ac_addr_reason": null,
            "remark": null,
            "created_at": "2021-11-15T06:30:20.000000Z",
            "updated_at": "2021-11-15T06:30:20.000000Z"
        },
        {
            "id": 983,
            "user_id": 1,
            "current_addr": "KOx0KIGcbZmIGlw",
            "name": "s9zOblW2",
            "owner_relation": "WVDmGOKa",
            "id_card": "tYMDfJbE42zDFMBm1K",
            "gender": "男",
            "nation": "rl",
            "tel": "0",
            "investigate_addr": "XB6seXBWJ206CWT",
            "account_addr": "Jkf7aHGg1HRW8x1",
            "enter_time": null,
            "leave_ac_addr_time": null,
            "leave_ac_addr_reason": null,
            "remark": null,
            "created_at": "2021-11-15T06:30:20.000000Z",
            "updated_at": "2021-11-15T06:30:20.000000Z"
        },
        {
            "id": 984,
            "user_id": 1,
            "current_addr": "7UO4Z7PYyMOOBwG",
            "name": "X1H9CvRV",
            "owner_relation": "vDOIwf11",
            "id_card": "L1VMDynq3foujlgwaA",
            "gender": "男",
            "nation": "g2",
            "tel": "0",
            "investigate_addr": "pRMBS1kfM9s9KG5",
            "account_addr": "gOSqMpU5EfbM2M0",
            "enter_time": null,
            "leave_ac_addr_time": null,
            "leave_ac_addr_reason": null,
            "remark": null,
            "created_at": "2021-11-15T06:30:20.000000Z",
            "updated_at": "2021-11-15T06:30:20.000000Z"
        },
        {
            "id": 985,
            "user_id": 1,
            "current_addr": "XqKV4EeD1J7nYxs",
            "name": "HZO4kPzw",
            "owner_relation": "U8SVkhBv",
            "id_card": "QWK7Iy3xm9qlnYcs7B",
            "gender": "男",
            "nation": "SQ",
            "tel": "0",
            "investigate_addr": "qplUoomuB2hqnZr",
            "account_addr": "a0ul9F0YNaX1XV8",
            "enter_time": null,
            "leave_ac_addr_time": null,
            "leave_ac_addr_reason": null,
            "remark": null,
            "created_at": "2021-11-15T06:30:20.000000Z",
            "updated_at": "2021-11-15T06:30:20.000000Z"
        },
        {
            "id": 986,
            "user_id": 1,
            "current_addr": "ZcbKZIZ9ibWRyQm",
            "name": "adOYoEeW",
            "owner_relation": "j6es74nd",
            "id_card": "neuhOle9p07GKWOUxy",
            "gender": "男",
            "nation": "Tn",
            "tel": "0",
            "investigate_addr": "KkC0O4F9FwVw7bL",
            "account_addr": "bubWBYWmDrsAeP1",
            "enter_time": null,
            "leave_ac_addr_time": null,
            "leave_ac_addr_reason": null,
            "remark": null,
            "created_at": "2021-11-15T06:30:20.000000Z",
            "updated_at": "2021-11-15T06:30:20.000000Z"
        }
    ],
    "first_page_url": "http://api.oasystem.com/demo?page=1",
    "from": 1,
    "last_page": 67,
    "last_page_url": "http://api.oasystem.com/demo?page=67",
    "links": [
        {
            "url": null,
            "label": "« 上一页",
            "active": false
        },
        {
            "url": "http://api.oasystem.com/demo?page=1",
            "label": "1",
            "active": true
        },
        {
            "url": "http://api.oasystem.com/demo?page=2",
            "label": "2",
            "active": false
        },
        {
            "url": "http://api.oasystem.com/demo?page=3",
            "label": "3",
            "active": false
        },
        {
            "url": "http://api.oasystem.com/demo?page=4",
            "label": "4",
            "active": false
        },
        {
            "url": "http://api.oasystem.com/demo?page=5",
            "label": "5",
            "active": false
        },
        {
            "url": "http://api.oasystem.com/demo?page=6",
            "label": "6",
            "active": false
        },
        {
            "url": "http://api.oasystem.com/demo?page=7",
            "label": "7",
            "active": false
        },
        {
            "url": "http://api.oasystem.com/demo?page=8",
            "label": "8",
            "active": false
        },
        {
            "url": "http://api.oasystem.com/demo?page=9",
            "label": "9",
            "active": false
        },
        {
            "url": "http://api.oasystem.com/demo?page=10",
            "label": "10",
            "active": false
        },
        {
            "url": null,
            "label": "...",
            "active": false
        },
        {
            "url": "http://api.oasystem.com/demo?page=66",
            "label": "66",
            "active": false
        },
        {
            "url": "http://api.oasystem.com/demo?page=67",
            "label": "67",
            "active": false
        },
        {
            "url": "http://api.oasystem.com/demo?page=2",
            "label": "下一页 »",
            "active": false
        }
    ],
    "next_page_url": "http://api.oasystem.com/demo?page=2",
    "path": "http://api.oasystem.com/demo",
    "per_page": 15,
    "prev_page_url": null,
    "to": 15,
    "total": 1001
}